<svg width="360" height="297" viewBox="0 0 360 297" fill="none" xmlns="http://www.w3.org/2000/svg">
<path d="M0 297V170.936C59.5 238.5 135.5 145.373 228 170.936C320.5 196.5 323.979 153.494 335.133 111.134C343.997 77.473 358.347 34.4 359.868 8.17622V0C360.048 2.48704 360.04 5.22493 359.868 8.17622V273.598C304 295 273.274 228.5 196 228.5C78 228.5 46.5 297 0 297Z" fill="#D7FBF6"/>
</svg>
