<svg width="21" height="24" viewBox="0 0 21 24" fill="none" xmlns="http://www.w3.org/2000/svg">
<path d="M0.5625 9H20.4375C20.8125 9 21 9.1875 21 9.5625V21.75C21 22.375 20.7812 22.9062 20.3438 23.3438C19.9062 23.7812 19.375 24 18.75 24H2.25C1.625 24 1.09375 23.7812 0.65625 23.3438C0.21875 22.9062 0 22.375 0 21.75V9.5625C0 9.1875 0.1875 9 0.5625 9ZM21 6.9375C21 7.3125 20.8125 7.5 20.4375 7.5H0.5625C0.1875 7.5 0 7.3125 0 6.9375V5.25C0 4.625 0.21875 4.09375 0.65625 3.65625C1.09375 3.21875 1.625 3 2.25 3H4.5V0.5625C4.5 0.1875 4.6875 0 5.0625 0H6.9375C7.3125 0 7.5 0.1875 7.5 0.5625V3H13.5V0.5625C13.5 0.1875 13.6875 0 14.0625 0H15.9375C16.3125 0 16.5 0.1875 16.5 0.5625V3H18.75C19.375 3 19.9062 3.21875 20.3438 3.65625C20.7812 4.09375 21 4.625 21 5.25V6.9375Z" fill="#3FDBC8"/>
</svg>
